{
    "/dist/index.js": "/dist/index.js?id=806e13716b3fabf9f575",
    "/dist/index.js.map": "/dist/index.js.map?id=3f9acdfcb3f0076d2795",
    "/dist/app.js": "/dist/app.js?id=9253703266bfa2f1ecb4",
    "/dist/app.css": "/dist/app.css?id=8fd315fb185b1dbc91c9",
    "/dist/app.js.map": "/dist/app.js.map?id=9dccab63d5d059054b44",
    "/dist/app.css.map": "/dist/app.css.map?id=d50addec043288099e83"
}
